%YAML 1.1
%TAG !u! tag:unity3d.com,2011:
--- !u!114 &11400000
MonoBehaviour:
  m_ObjectHideFlags: 0
  m_CorrespondingSourceObject: {fileID: 0}
  m_PrefabInternal: {fileID: 0}
  m_GameObject: {fileID: 0}
  m_Enabled: 1
  m_EditorHideFlags: 0
  m_Script: {fileID: 11500000, guid: 0479b02c5c74f8141855cd0a952abc56, type: 3}
  m_Name: 6_A_Splenda
  m_EditorClassIdentifier: 
  Witch: {fileID: 11400000, guid: d5173e55e1e2a1447b7feda46af8861b, type: 2}
  SoundCall:
    soundKey: 
    soundUsed: {fileID: 1775657543766480, guid: 0fa4700e3460fcc4db5eb8d9d2887cf4,
      type: 2}
    priority: 1
    volume: 1
    pitch: 1
    pitchVariation: 0
    autoFadeRate: 0
    autoFades: 0
  TextString: Nyeahahaha! I'm so hungry a cat I could eat! I will feast on your defeat!
  LevelNum: 5
  Trigger: 1
