%YAML 1.1
%TAG !u! tag:unity3d.com,2011:
--- !u!114 &11400000
MonoBehaviour:
  m_ObjectHideFlags: 0
  m_CorrespondingSourceObject: {fileID: 0}
  m_PrefabInternal: {fileID: 0}
  m_GameObject: {fileID: 0}
  m_Enabled: 1
  m_EditorHideFlags: 0
  m_Script: {fileID: 11500000, guid: b68357d0a1de62343a83a56d9df43427, type: 3}
  m_Name: Splenda
  m_EditorClassIdentifier: 
  Sprite: {fileID: 21300000, guid: 721dafcd07645ed4996ee4cb212bbc87, type: 3}
  DisplayName: Splenda
  PortraitColor: {r: 0.41509432, g: 0.060494862, b: 0.05678178, a: 1}
  FrameColor: {r: 0.83921576, g: 0.09019608, b: 0.08235294, a: 1}
  BackgroundColor: {r: 0.16037738, g: 0.021875702, b: 0.020425422, a: 1}
  TextColor: {r: 1, g: 0.83661646, b: 0.8349056, a: 1}
